<?xml version="1.0" encoding="UTF-8" standalone="no"?>
<!-- Created with Inkscape (http://www.inkscape.org/) -->

<svg
   width="395"
   height="430"
   viewBox="0 0 104.51041 113.77083"
   version="1.1"
   id="svg181"
   inkscape:export-filename="logo.png"
   inkscape:export-xdpi="96"
   inkscape:export-ydpi="96"
   inkscape:version="1.2.2 (b0a8486541, 2022-12-01)"
   sodipodi:docname="logo.svg"
   xmlns:inkscape="http://www.inkscape.org/namespaces/inkscape"
   xmlns:sodipodi="http://sodipodi.sourceforge.net/DTD/sodipodi-0.dtd"
   xmlns="http://www.w3.org/2000/svg"
   xmlns:svg="http://www.w3.org/2000/svg">
  <sodipodi:namedview
     id="namedview183"
     pagecolor="#ffffff"
     bordercolor="#000000"
     borderopacity="0.25"
     inkscape:showpageshadow="2"
     inkscape:pageopacity="0.0"
     inkscape:pagecheckerboard="0"
     inkscape:deskcolor="#d1d1d1"
     inkscape:document-units="mm"
     showgrid="false"
     inkscape:zoom="0.70199214"
     inkscape:cx="55.556177"
     inkscape:cy="333.33706"
     inkscape:window-width="1870"
     inkscape:window-height="1011"
     inkscape:window-x="0"
     inkscape:window-y="0"
     inkscape:window-maximized="1"
     inkscape:current-layer="layer1" />
  <defs
     id="defs178" />
  <g
     inkscape:label="Layer 1"
     inkscape:groupmode="layer"
     id="layer1">
    <g
       id="g293"
       transform="translate(-0.36995093,0.18352095)">
      <circle
         cx="26.236013"
         cy="56.701771"
         r="8.7963743"
         fill="#141414"
         id="circle2"
         style="stroke-width:1.32682" />
      <circle
         cx="52.625038"
         cy="56.701771"
         r="8.7963743"
         fill="#141414"
         id="circle4"
         style="stroke-width:1.32682" />
      <circle
         opacity="0.2"
         cx="26.236013"
         cy="83.091034"
         r="8.7963743"
         fill="#141414"
         id="circle6"
         style="stroke-width:1.32682" />
      <circle
         opacity="0.2"
         cx="79.014305"
         cy="83.091034"
         r="8.7963743"
         fill="#141414"
         id="circle8"
         style="stroke-width:1.32682" />
      <circle
         cx="52.625038"
         cy="83.091034"
         r="8.7963743"
         fill="#141414"
         id="circle10"
         style="stroke-width:1.32682" />
      <circle
         cx="79.014305"
         cy="56.701771"
         r="8.7963743"
         fill="#141414"
         id="circle12"
         style="stroke-width:1.32682" />
      <circle
         opacity="0.2"
         cx="26.236013"
         cy="30.312757"
         r="8.7963743"
         fill="#141414"
         id="circle14"
         style="stroke-width:1.32682" />
      <circle
         opacity="0.2"
         cx="52.625038"
         cy="30.312757"
         r="8.7963743"
         fill="#141414"
         id="circle16"
         style="stroke-width:1.32682" />
      <circle
         opacity="0.2"
         cx="79.014305"
         cy="30.312757"
         r="8.7963743"
         fill="#141414"
         id="circle18"
         style="stroke-width:1.32682" />
    </g>
  </g>
</svg>
